Get started • merra2ools
…
Method 2: intersection

locid_fl2 <- get_locid(florida_sp)
#> Loading required namespace: rgeos

locid_fl_df2 <- getGrid(locid = locid_fl2, class = "df")
#> Converting sp object to data.frame format
locid_fl_df2
#> # A tibble: 73 x 3
#>     locid   lon   lat
#>     <int> <dbl> <dbl>
#>  1 132062 -81.9  24.5
#>  2 132063 -81.2  24.5
#>  3 132639 -81.2  25  
#>  4 132640 -80.6  25  
#>  5 133215 -81.2  25.5
#>  6 133216 -80.6  25.5
#>  7 133217 -80    25.5
#>  8 133790 -81.9  26  
#>  9 133791 -81.2  26  
#> 10 133792 -80.6  26  
#> # ... with 63 more rows
…
