Get MERRA-2 grid — getGrid • merra2ools
…
#> Converting sp object to data.frame format
#> # A tibble: 357 x 3
#>     locid   lon   lat
#>     <int> <dbl> <dbl>
#>  1 138417 -70      30
#>  2 138418 -69.4    30
#>  3 138419 -68.8    30
#>  4 138420 -68.1    30
#>  5 138421 -67.5    30
#>  6 138422 -66.9    30
#>  7 138423 -66.2    30
#>  8 138424 -65.6    30
#>  9 138425 -65      30
#> 10 138426 -64.4    30
#> # ... with 347 more rows
…
